{
  "categories": [
    {
      "category": "Недвижимость"
      
    },
    {
      "category": "Электроника"
      
    },
    {
      "category": "Хобби и отдых"
      
    },
    {
      "category": "Транспорт"
      
    },
    {
      "category": "Работа"
      
    },
    {
      "category": "Животные"

    },
    {
      "category": "Детский мир"

    },
    {
      "category": "Бизнес и услуги"

    },
    {
      "category": "Мода и стиль"

    },
    {
      "category": "Дом и сад"

    },
    {
      "category": "Отдам даром"

    },
    {
      "category": "Обмен"

    }
  ]
}