{
  "search": [
    {
      "variant": "Titanic",
      "matched": "10"
    },
    {
      "variant": "Tinto",
      "matched": "12"
    },
    {
      "variant": "Tarzan",
      "matched": "8"
    },
    {
      "variant": "Terminator",
      "matched": "97"
    },
    {
      "variant": "Avatar",
      "matched": "36"
    }
  ]
}